…
**2. Missing data locations (column 8 onwards)**

-   “NA” fields represent appropriately missing data (e.g. secondary to
    unfulfilled branching logic). Therefore, these are excluded from the
    missing data count entirely.

-   “M” fields represent ‘true’ missing data (which may require follow
    up), and so all counts of missing data are based these.

<!-- -->

    report_miss(redcap_project_uri,redcap_project_token)$data_missing_record

    ## # A tibble: 50 x 23
    ##    record_id redcap_data_access… miss_n fields_n miss_prop miss_pct miss_5
    ##    <chr>     <chr>                <dbl>    <dbl>     <dbl> <chr>    <chr> 
    ##  1 1         hospital_a               0       16    0      " 0.0%"  No    
    ##  2 2         hospital_a               2       16    0.125  12.5%    Yes   
    ##  3 3         hospital_a               1       16    0.0625 " 6.2%"  Yes   
    ##  4 4         hospital_a               0       16    0      " 0.0%"  No    
    ##  5 5         hospital_a               2       16    0.125  12.5%    Yes   
    ##  6 6         hospital_a               2       16    0.125  12.5%    Yes   
    ##  7 7         hospital_a               0       16    0      " 0.0%"  No    
    ##  8 8         hospital_a               0       16    0      " 0.0%"  No    
    ##  9 9         hospital_a               2       16    0.125  12.5%    Yes   
    ## 10 10        hospital_a               0       16    0      " 0.0%"  No    
    ## # ... with 40 more rows, and 16 more variables: pt_age <chr>,
    ## #   pt_sex <chr>, smoking_status <chr>, body_mass_index <chr>,
    ## #   pmh___1 <chr>, pmh___2 <chr>, pmh___3 <chr>, asa_grade <chr>,
    ## #   pt_ethnicity <chr>, adm_date <chr>, op_date <chr>, op_urgency <chr>,
    ## #   op_procedure_code <chr>, follow_up <chr>, follow_up_readm <chr>,
    ## #   follow_up_mort <chr>
…
