…
**b). A nested dataframe of:**

**i). $full:** A dataframe of all user rights of the redcap project
(with an additional column called “role” which numbers users 1:n
according to their unique role).

    # Example output from user_roles_n()
    user_roles_n_full <- user_roles_n(redcap_project_uri, redcap_project_token)$full # please note all names are randomly generated

    ## [1] "There are 3 unique roles in this redcap project"

    user_roles_n_full

    ## # A tibble: 36 x 33
    ##     role username  email    firstname lastname expiration data_access_gro…
    ##    <int> <chr>     <chr>    <chr>     <chr>    <chr>      <chr>           
    ##  1     1 a_barker  a_barke… Aleesha   Barker   <NA>       hospital_a      
    ##  2     1 a_hicks   a_hicks… Alyssa    Hicks    <NA>       hospital_e      
    ##  3     1 a_lees    a_lees@… Aleesha   Lees     <NA>       hospital_g      
    ##  4     1 a_nichol… a_nicho… Alyssa    Nichols… <NA>       hospital_i      
    ##  5     1 c_avila   c_avila… Chanice   Avila    <NA>       <NA>            
    ##  6     1 c_gould   c_gould… Chanice   Gould    <NA>       hospital_b      
    ##  7     1 c_kent    c_kent@… Chanice   Kent     <NA>       hospital_f      
    ##  8     1 c_michael c_micha… Chanice   Michael  <NA>       hospital_h      
    ##  9     1 f_almond  f_almon… Fleur     Almond   <NA>       <NA>            
    ## 10     1 f_galindo f_galin… Fleur     Galindo  <NA>       hospital_a      
    ## # ... with 26 more rows, and 26 more variables:
    ## #   data_access_group_id <int>, design <int>, user_rights <int>,
    ## #   data_access_groups <int>, data_export <int>, reports <int>,
    ## #   stats_and_charts <int>, manage_survey_participants <int>,
    ## #   calendar <int>, data_import_tool <int>, data_comparison_tool <int>,
    ## #   logging <int>, file_repository <int>, data_quality_create <int>,
    ## #   data_quality_execute <int>, api_export <int>, api_import <int>,
    ## #   mobile_app <int>, mobile_app_download_data <int>, record_create <int>,
    ## #   record_rename <int>, record_delete <int>,
…
